func.vcd
$date
	Wed Aug 16 09:56:13 2023
$end
$version
	Icarus Verilog
$end
$timescale
	1s
$end
$scope module main $end
$var wire 4 ! G1 [3:0] $end
$var wire 4 " B2 [3:0] $end
$var reg 4 # B1 [3:0] $end
$var reg 4 $ G2 [3:0] $end
$upscope $end
$enddefinitions $end
$comment Show the parameter values. $end
$dumpall
$end
#0
$dumpvars
bx $
b0 #
bx "
b0 !
$end
#1
b1 !
b1 #
#2
b11 !
b10 #
#3
b10 !
b11 #
#4
b110 !
b100 #
#5
b111 !
b101 #
#6
b101 !
b110 #
#7
b100 !
b111 #
#8
b1100 !
b1000 #
#9
b1101 !
b1001 #
#10
b1111 !
b1010 #
#11
b1110 !
b1011 #
#12
b1010 !
b1100 #
#13
b1011 !
b1101 #
#14
b1001 !
b1110 #
#15
b1000 !
b1111 #
#16
b0 "
b0 $
#17
b1 "
b1 $
#18
b11 "
b10 $
#19
b10 "
b11 $
#20
b111 "
b100 $
#21
b110 "
b101 $
#22
b100 "
b110 $
#23
b101 "
b111 $
#24
b1111 "
b1000 $
#25
b1110 "
b1001 $
#26
b1100 "
b1010 $
#27
b1101 "
b1011 $
#28
b1000 "
b1100 $
#29
b1001 "
b1101 $
#30
b1011 "
b1110 $
#31
b1010 "
b1111 $
